%YAML 1.1
%TAG !u! tag:unity3d.com,2011:
--- !u!78 &1
TagManager:
  serializedVersion: 2
  tags:
  - CheckPoint
  - JumpPad
  - Window
  - Ground
  - FallingPlatform
  - FlashLights
  - EvenSprites
  - RandomSprites
  - OddSprites
  - ForeGround
  - MidGround
  - EndLevel
  - Truck
  - OutWindow
  - Interactable
  - Inter
  - Hi
  - FlowerBed
  - Bed
  - Kill
  - Clouds
  layers:
  - Default
  - TransparentFX
  - Ignore Raycast
  - 
  - Water
  - UI
  - 
  - 
  - Ground
  - 
  - 
  - 
  - 
  - 
  - 
  - 
  - 
  - 
  - 
  - 
  - 
  - 
  - 
  - 
  - 
  - 
  - 
  - 
  - 
  - 
  - 
  - 
  m_SortingLayers:
  - name: Default
    uniqueID: 0
    locked: 0
  - name: Middle
    uniqueID: 2254146185
    locked: 0
  - name: MiddleFront
    uniqueID: 1200070331
    locked: 0
  - name: Player
    uniqueID: 2578176521
    locked: 0
  - name: Front
    uniqueID: 3929727071
    locked: 0
  - name: Front-Front
    uniqueID: 2447025473
    locked: 0
  - name: Lights
    uniqueID: 3480686927
    locked: 0
  - name: NewPlatSections
    uniqueID: 2686472393
    locked: 0
